{
	"info": {
		"_postman_id": "116fac0a-c53d-42b6-8468-4dbb9e5b58b9",
		"name": "Teste-Logico-Memory",
		"schema": "https://schema.getpostman.com/json/collection/v2.1.0/collection.json",
		"_exporter_id": "24394709"
	},
	"item": [
		{
			"name": "Colaborador",
			"item": [
				{
					"name": "Home / Buscar Colaboradores",
					"request": {
						"method": "GET",
						"header": [],
						"url": {
							"raw": "{{base_url}}/home",
							"host": [
								"{{base_url}}"
							],
							"path": [
								"home"
							]
						}
					},
					"response": []
				},
				{
					"name": "Filtrar Colaborador por ano",
					"request": {
						"method": "GET",
						"header": [],
						"url": {
							"raw": "{{base_url}}/filtrar/{{ano}}",
							"host": [
								"{{base_url}}"
							],
							"path": [
								"filtrar",
								"{{ano}}"
							]
						}
					},
					"response": []
				},
				{
					"name": "Deletar Colaborador",
					"request": {
						"method": "DELETE",
						"header": [],
						"url": {
							"raw": "{{base_url}}/delete-colaborador/{{id}}",
							"host": [
								"{{base_url}}"
							],
							"path": [
								"delete-colaborador",
								"{{id}}"
							]
						}
					},
					"response": []
				},
				{
					"name": "Buscar um Colaborador",
					"request": {
						"method": "GET",
						"header": [],
						"url": {
							"raw": "{{base_url}}/colaborador/{{id}}",
							"host": [
								"{{base_url}}"
							],
							"path": [
								"colaborador",
								"{{id}}"
							]
						}
					},
					"response": []
				}
			]
		},
		{
			"name": "Gerente",
			"item": [
				{
					"name": "Salvar Gerente",
					"request": {
						"method": "POST",
						"header": [],
						"body": {
							"mode": "raw",
							"raw": "//Faça as alterações necessárias\r\n{\r\n    \"cpf\": \"123.213.321-01\",\r\n    \"nome\": \"Maria Silva 2\",\r\n    \"dataAdmissao\": \"2023-02-15\",\r\n    \"remuneracao\": 2000.00,\r\n    \"funcao\": \"Subordinado\",\r\n    \"novaFuncao\": \"\"\r\n}",
							"options": {
								"raw": {
									"language": "json"
								}
							}
						},
						"url": {
							"raw": "{{base_url}}/salvar-gerente",
							"host": [
								"{{base_url}}"
							],
							"path": [
								"salvar-gerente"
							]
						}
					},
					"response": []
				},
				{
					"name": "Alterar Gerente",
					"request": {
						"method": "PUT",
						"header": [],
						"body": {
							"mode": "raw",
							"raw": "{\r\n    \"cpf\": \"022.139.541-51\",\r\n    \"nome\": \"Rafael Rodrigues Leite\",\r\n    \"dataAdmissao\": \"2023-06-18\",\r\n    \"remuneracao\": 10000.00,\r\n    \"funcao\": \"Presidente\",\r\n    \"novaFuncao\": \"\"\r\n}",
							"options": {
								"raw": {
									"language": "json"
								}
							}
						},
						"url": {
							"raw": "{{base_url}}/alterar-gerente/{{id}}",
							"host": [
								"{{base_url}}"
							],
							"path": [
								"alterar-gerente",
								"{{id}}"
							]
						}
					},
					"response": []
				},
				{
					"name": "Adicionar Subordinados no Gerente",
					"request": {
						"method": "PUT",
						"header": [],
						"body": {
							"mode": "raw",
							"raw": "[\r\n    {\r\n        \"id\": 19,\r\n        \"nome\": \"Camila Fernandes\",\r\n        \"funcao\": \"Subordinado\",\r\n        \"cpf\": \"123.456.789-18\",\r\n        \"dataAdmissao\": \"2025-01-01\",\r\n        \"remuneracao\": 2900.00,\r\n        \"novaFuncao\": \"\"\r\n    },\r\n    {\r\n        \"id\": 8,\r\n        \"nome\": \"Carolina Fernandes\",\r\n        \"funcao\": \"Subordinado\",\r\n        \"cpf\": \"987.654.321-07\",\r\n        \"dataAdmissao\": \"2023-08-10\",\r\n        \"remuneracao\": 2100.00,\r\n        \"novaFuncao\": \"\"\r\n    },\r\n    {\r\n        \"id\": 27,\r\n        \"nome\": \"Eduardo Silva\",\r\n        \"funcao\": \"Subordinado\",\r\n        \"cpf\": \"123.456.789-26\",\r\n        \"dataAdmissao\": \"2025-09-25\",\r\n        \"remuneracao\": 3000.00,\r\n        \"novaFuncao\": \"\"\r\n    }\r\n]",
							"options": {
								"raw": {
									"language": "json"
								}
							}
						},
						"url": {
							"raw": "{{base_url}}/{{gerenteId}}/gerente/adicionar-subordinados",
							"host": [
								"{{base_url}}"
							],
							"path": [
								"{{gerenteId}}",
								"gerente",
								"adicionar-subordinados"
							]
						}
					},
					"response": []
				},
				{
					"name": "Deletar Gerente",
					"request": {
						"method": "DELETE",
						"header": [],
						"url": {
							"raw": "{{base_url}}/delete-gerente/{{id}}",
							"host": [
								"{{base_url}}"
							],
							"path": [
								"delete-gerente",
								"{{id}}"
							]
						}
					},
					"response": []
				},
				{
					"name": "Buscar Gerentes Paginado",
					"request": {
						"method": "GET",
						"header": [],
						"url": {
							"raw": "{{base_url}}/gerentes",
							"host": [
								"{{base_url}}"
							],
							"path": [
								"gerentes"
							]
						}
					},
					"response": []
				},
				{
					"name": "Buscar Gerentes",
					"request": {
						"method": "GET",
						"header": [],
						"url": {
							"raw": "{{base_url}}/gerentesAll",
							"host": [
								"{{base_url}}"
							],
							"path": [
								"gerentesAll"
							]
						}
					},
					"response": []
				},
				{
					"name": "Buscar um Gerente",
					"request": {
						"method": "GET",
						"header": [],
						"url": {
							"raw": "{{base_url}}/gerente/{{id}}",
							"host": [
								"{{base_url}}"
							],
							"path": [
								"gerente",
								"{{id}}"
							]
						}
					},
					"response": []
				},
				{
					"name": "Buscar Presidente do Gerente",
					"request": {
						"method": "GET",
						"header": [],
						"url": {
							"raw": "{{base_url}}/{{gerenteId}}/gerente/presidente",
							"host": [
								"{{base_url}}"
							],
							"path": [
								"{{gerenteId}}",
								"gerente",
								"presidente"
							]
						}
					},
					"response": []
				},
				{
					"name": "Buscar Subordinados do Gerente",
					"request": {
						"method": "GET",
						"header": [],
						"url": {
							"raw": "{{base_url}}/{{gerenteId}}/gerente/subordinados",
							"host": [
								"{{base_url}}"
							],
							"path": [
								"{{gerenteId}}",
								"gerente",
								"subordinados"
							]
						}
					},
					"response": []
				},
				{
					"name": "Buscar um Subordinado do Gerente",
					"request": {
						"method": "GET",
						"header": [],
						"url": {
							"raw": "{{base_url}}/{{gerenteId}}/gerente/subordinado/{{subordinadoId}}",
							"host": [
								"{{base_url}}"
							],
							"path": [
								"{{gerenteId}}",
								"gerente",
								"subordinado",
								"{{subordinadoId}}"
							]
						}
					},
					"response": []
				},
				{
					"name": "Remover Subordinados do Gerente",
					"request": {
						"method": "GET",
						"header": [],
						"url": {
							"raw": "{{base_url}}/{{gerenteId}}/gerente/remover-subordinados",
							"host": [
								"{{base_url}}"
							],
							"path": [
								"{{gerenteId}}",
								"gerente",
								"remover-subordinados"
							]
						}
					},
					"response": []
				},
				{
					"name": "Remover um Subordinado Gerente",
					"request": {
						"method": "GET",
						"header": [],
						"url": {
							"raw": "{{base_url}}/{{gerenteId}}/gerente/remover-subordinado/{{subordinadoId}}",
							"host": [
								"{{base_url}}"
							],
							"path": [
								"{{gerenteId}}",
								"gerente",
								"remover-subordinado",
								"{{subordinadoId}}"
							]
						}
					},
					"response": []
				}
			]
		},
		{
			"name": "Presidente",
			"item": [
				{
					"name": "Salvar Presidente",
					"request": {
						"method": "POST",
						"header": [],
						"body": {
							"mode": "raw",
							"raw": "{\r\n    \"cpf\": \"133.541.789-51\",\r\n    \"nome\": \"Jair Bolsonario\",\r\n    \"dataAdmissao\": \"2023-06-30\",\r\n    \"remuneracao\": 3000.51,\r\n    \"funcao\": \"Presidente\",\r\n    \"novaFuncao\": \"\"\r\n}",
							"options": {
								"raw": {
									"language": "json"
								}
							}
						},
						"url": {
							"raw": "{{base_url}}/salvar-presidente",
							"host": [
								"{{base_url}}"
							],
							"path": [
								"salvar-presidente"
							]
						}
					},
					"response": []
				},
				{
					"name": "Alterar Presidente",
					"request": {
						"method": "PUT",
						"header": [],
						"body": {
							"mode": "raw",
							"raw": "{\r\n    \"cpf\": \"133.541.789-51\",\r\n    \"nome\": \"Jair Bolsonario\",\r\n    \"dataAdmissao\": \"2023-06-30\",\r\n    \"remuneracao\": 2500.99,\r\n    \"funcao\": \"Presidente\",\r\n    \"novaFuncao\": \"\"\r\n}",
							"options": {
								"raw": {
									"language": "json"
								}
							}
						},
						"url": {
							"raw": "{{base_url}}/alterar-presidente/{{id}}",
							"host": [
								"{{base_url}}"
							],
							"path": [
								"alterar-presidente",
								"{{id}}"
							]
						}
					},
					"response": []
				},
				{
					"name": "Adicionar Subordinados no Presidente",
					"request": {
						"method": "PUT",
						"header": [],
						"body": {
							"mode": "raw",
							"raw": "[\r\n    {\r\n        \"id\": 7,\r\n        \"nome\": \"Lucas Oliveira\",\r\n        \"funcao\": \"Subordinado\",\r\n        \"cpf\": \"123.456.789-06\",\r\n        \"dataAdmissao\": \"2023-07-20\",\r\n        \"remuneracao\": 1900.00,\r\n        \"novaFuncao\": \"\"\r\n    },\r\n    {\r\n        \"id\": 23,\r\n        \"nome\": \"Lucas Santos\",\r\n        \"funcao\": \"Subordinado\",\r\n        \"cpf\": \"123.456.789-22\",\r\n        \"dataAdmissao\": \"2025-05-05\",\r\n        \"remuneracao\": 2600.00,\r\n        \"novaFuncao\": \"\"\r\n    },\r\n    {\r\n        \"id\": 2,\r\n        \"nome\": \"Maria Silva\",\r\n        \"funcao\": \"Subordinado\",\r\n        \"cpf\": \"987.654.321-01\",\r\n        \"dataAdmissao\": \"2023-02-15\",\r\n        \"remuneracao\": 2000.00,\r\n        \"novaFuncao\": \"\"\r\n    },\r\n    {\r\n        \"id\": 13,\r\n        \"nome\": \"Mariana Almeida\",\r\n        \"funcao\": \"Subordinado\",\r\n        \"cpf\": \"123.456.789-12\",\r\n        \"dataAdmissao\": \"2024-04-20\",\r\n        \"remuneracao\": 2300.00,\r\n        \"novaFuncao\": \"\"\r\n    }\r\n]",
							"options": {
								"raw": {
									"language": "json"
								}
							}
						},
						"url": {
							"raw": "{{base_url}}/{{presidenteId}}/presidente/adicionar-subordinados",
							"host": [
								"{{base_url}}"
							],
							"path": [
								"{{presidenteId}}",
								"presidente",
								"adicionar-subordinados"
							]
						}
					},
					"response": []
				},
				{
					"name": "Adicionar Gerentes no Presidente",
					"request": {
						"method": "PUT",
						"header": [],
						"body": {
							"mode": "raw",
							"raw": "[\r\n    {\r\n        \"id\": 26,\r\n        \"nome\": \"Carolina Castro\",\r\n        \"funcao\": \"Gerente\",\r\n        \"cpf\": \"987.654.321-25\",\r\n        \"dataAdmissao\": \"2025-08-10\",\r\n        \"remuneracao\": 3200.00,\r\n        \"novaFuncao\": \"\",\r\n        \"subordinado\": [\r\n            {\r\n                \"id\": 27,\r\n                \"cpf\": \"123.456.789-26\",\r\n                \"nome\": \"Eduardo Silva\",\r\n                \"dataAdmissao\": \"2025-09-25\",\r\n                \"remuneracao\": 3000.00,\r\n                \"funcao\": \"Subordinado\",\r\n                \"novaFuncao\": \"\"\r\n            }\r\n        ]\r\n    },\r\n    {\r\n        \"id\": 30,\r\n        \"nome\": \"Patrícia Oliveira\",\r\n        \"funcao\": \"Gerente\",\r\n        \"cpf\": \"987.654.321-29\",\r\n        \"dataAdmissao\": \"2026-03-10\",\r\n        \"remuneracao\": 3600.00,\r\n        \"novaFuncao\": \"\",\r\n        \"subordinado\": []\r\n    },\r\n    {\r\n        \"id\": 32,\r\n        \"nome\": \"Maria Silva 2\",\r\n        \"funcao\": \"Gerente\",\r\n        \"cpf\": \"123.213.321-01\",\r\n        \"dataAdmissao\": \"2023-02-15\",\r\n        \"remuneracao\": 2000.00,\r\n        \"novaFuncao\": \"\",\r\n        \"subordinado\": []\r\n    },\r\n    {\r\n        \"id\": 4,\r\n        \"nome\": \"Rafael Rodrigues Leite\",\r\n        \"funcao\": \"Gerente\",\r\n        \"cpf\": \"022.139.541-51\",\r\n        \"dataAdmissao\": \"2023-06-18\",\r\n        \"remuneracao\": 10000.00,\r\n        \"novaFuncao\": \"\",\r\n        \"subordinado\": [\r\n            {\r\n                \"id\": 14,\r\n                \"cpf\": \"987.654.321-13\",\r\n                \"nome\": \"Fábio Gomes\",\r\n                \"dataAdmissao\": \"2024-05-05\",\r\n                \"remuneracao\": 2700.00,\r\n                \"funcao\": \"Subordinado\",\r\n                \"novaFuncao\": \"\"\r\n            },\r\n            {\r\n                \"id\": 17,\r\n                \"cpf\": \"123.456.789-16\",\r\n                \"nome\": \"Isabela Castro\",\r\n                \"dataAdmissao\": \"2024-08-10\",\r\n                \"remuneracao\": 2600.00,\r\n                \"funcao\": \"Subordinado\",\r\n                \"novaFuncao\": \"\"\r\n            }\r\n        ]\r\n    }\r\n]",
							"options": {
								"raw": {
									"language": "json"
								}
							}
						},
						"url": {
							"raw": "{{base_url}}/{{presidenteId}}/presidente/adicionar-gerentes",
							"host": [
								"{{base_url}}"
							],
							"path": [
								"{{presidenteId}}",
								"presidente",
								"adicionar-gerentes"
							]
						}
					},
					"response": []
				},
				{
					"name": "Deletar Presidente",
					"request": {
						"method": "DELETE",
						"header": [],
						"url": {
							"raw": "{{base_url}}/delete-presidente/{{id}}",
							"host": [
								"{{base_url}}"
							],
							"path": [
								"delete-presidente",
								"{{id}}"
							]
						}
					},
					"response": []
				},
				{
					"name": "Remover Gerentes do Presidente",
					"request": {
						"method": "GET",
						"header": [],
						"url": {
							"raw": "{{base_url}}/{{presidenteId}}/presidente/remover-gerentes",
							"host": [
								"{{base_url}}"
							],
							"path": [
								"{{presidenteId}}",
								"presidente",
								"remover-gerentes"
							]
						}
					},
					"response": []
				},
				{
					"name": "Remover um Gerente do Presidente",
					"request": {
						"method": "GET",
						"header": [],
						"url": {
							"raw": "{{base_url}}/{{presidenteId}}/presidente/remover-gerente/{{gerenteId}}",
							"host": [
								"{{base_url}}"
							],
							"path": [
								"{{presidenteId}}",
								"presidente",
								"remover-gerente",
								"{{gerenteId}}"
							]
						}
					},
					"response": []
				},
				{
					"name": "Remover Subordinados do Presidente",
					"request": {
						"method": "GET",
						"header": [],
						"url": {
							"raw": "{{base_url}}/{{presidenteId}}/presidente/remover-subordinados",
							"host": [
								"{{base_url}}"
							],
							"path": [
								"{{presidenteId}}",
								"presidente",
								"remover-subordinados"
							]
						}
					},
					"response": []
				},
				{
					"name": "Remover um Subordinado do Presidente",
					"request": {
						"method": "GET",
						"header": [],
						"url": {
							"raw": "{{base_url}}/{{presidenteId}}/presidente/remover-subordinado/{{subordinadoId}}",
							"host": [
								"{{base_url}}"
							],
							"path": [
								"{{presidenteId}}",
								"presidente",
								"remover-subordinado",
								"{{subordinadoId}}"
							]
						}
					},
					"response": []
				},
				{
					"name": "Buscar Presidentes Paginado",
					"request": {
						"method": "GET",
						"header": [],
						"url": {
							"raw": "{{base_url}}/presidentes",
							"host": [
								"{{base_url}}"
							],
							"path": [
								"presidentes"
							]
						}
					},
					"response": []
				},
				{
					"name": "Buscar Presidentes",
					"request": {
						"method": "GET",
						"header": [],
						"url": {
							"raw": "{{base_url}}/presidentesAll",
							"host": [
								"{{base_url}}"
							],
							"path": [
								"presidentesAll"
							]
						}
					},
					"response": []
				},
				{
					"name": "Buscar um Presidente",
					"request": {
						"method": "GET",
						"header": [],
						"url": {
							"raw": "{{base_url}}/presidente/{{id}}",
							"host": [
								"{{base_url}}"
							],
							"path": [
								"presidente",
								"{{id}}"
							]
						}
					},
					"response": []
				},
				{
					"name": "Buscar Gerentes do Presidente",
					"request": {
						"method": "GET",
						"header": [],
						"url": {
							"raw": "{{base_url}}/{{presidenteId}}/presidente/gerentes",
							"host": [
								"{{base_url}}"
							],
							"path": [
								"{{presidenteId}}",
								"presidente",
								"gerentes"
							]
						}
					},
					"response": []
				},
				{
					"name": "Buscar um Gerente do Presidente",
					"request": {
						"method": "GET",
						"header": [],
						"url": {
							"raw": "{{base_url}}/{{presidenteId}}/presidente/gerente/{{gerenteId}}",
							"host": [
								"{{base_url}}"
							],
							"path": [
								"{{presidenteId}}",
								"presidente",
								"gerente",
								"{{gerenteId}}"
							]
						}
					},
					"response": []
				},
				{
					"name": "Buscar Subordinados do Presidente",
					"request": {
						"method": "GET",
						"header": [],
						"url": {
							"raw": "{{base_url}}/{{presidenteId}}/subordinados",
							"host": [
								"{{base_url}}"
							],
							"path": [
								"{{presidenteId}}",
								"subordinados"
							]
						}
					},
					"response": []
				},
				{
					"name": "Buscar um Subordinado do Presidente",
					"request": {
						"method": "GET",
						"header": [],
						"url": {
							"raw": "{{base_url}}/{{presidenteId}}/presidente/subordinado/{{subordinadoId}}",
							"host": [
								"{{base_url}}"
							],
							"path": [
								"{{presidenteId}}",
								"presidente",
								"subordinado",
								"{{subordinadoId}}"
							]
						}
					},
					"response": []
				}
			]
		},
		{
			"name": "Subordinado",
			"item": [
				{
					"name": "Salvar Subordinado",
					"request": {
						"method": "POST",
						"header": [],
						"body": {
							"mode": "raw",
							"raw": "{\r\n    \"cpf\": \"000.000.000-00\",\r\n    \"nome\": \"Rafael Gostoso\",\r\n    \"dataAdmissao\": \"2024-06-05\",\r\n    \"remuneracao\": 3999.99,\r\n    \"funcao\": \"Subordinado\",\r\n    \"novaFuncao\": \"\"\r\n}",
							"options": {
								"raw": {
									"language": "json"
								}
							}
						},
						"url": {
							"raw": "{{base_url}}/salvar-subordinado",
							"host": [
								"{{base_url}}"
							],
							"path": [
								"salvar-subordinado"
							]
						}
					},
					"response": []
				},
				{
					"name": "Alterar Subordinado",
					"request": {
						"method": "PUT",
						"header": [],
						"body": {
							"mode": "raw",
							"raw": "{\r\n    \"cpf\": \"000.000.000-00\",\r\n    \"nome\": \"Rafael Gostoso\",\r\n    \"dataAdmissao\": \"2024-06-05\",\r\n    \"remuneracao\": 5000.00,\r\n    \"funcao\": \"Subordinado\",\r\n    \"novaFuncao\": \"\"\r\n}",
							"options": {
								"raw": {
									"language": "json"
								}
							}
						},
						"url": {
							"raw": "{{base_url}}/alterar-subordinado/{{id}}",
							"host": [
								"{{base_url}}"
							],
							"path": [
								"alterar-subordinado",
								"{{id}}"
							]
						}
					},
					"response": []
				},
				{
					"name": "Deletar Subordinado",
					"request": {
						"method": "DELETE",
						"header": [],
						"url": {
							"raw": "{{base_url}}/delete-subordinado/{{id}}",
							"host": [
								"{{base_url}}"
							],
							"path": [
								"delete-subordinado",
								"{{id}}"
							]
						}
					},
					"response": []
				},
				{
					"name": "Buscar Subordinados Paginado",
					"request": {
						"method": "GET",
						"header": [],
						"url": {
							"raw": "{{base_url}}/subordinados",
							"host": [
								"{{base_url}}"
							],
							"path": [
								"subordinados"
							]
						}
					},
					"response": []
				},
				{
					"name": "Buscar Subordinados",
					"request": {
						"method": "GET",
						"header": [],
						"url": {
							"raw": "{{base_url}}/subornidadosAll",
							"host": [
								"{{base_url}}"
							],
							"path": [
								"subornidadosAll"
							]
						}
					},
					"response": []
				},
				{
					"name": "Buscar um Subordinado",
					"request": {
						"method": "GET",
						"header": [],
						"url": {
							"raw": "{{base_url}}/subordinado/{{id}}",
							"host": [
								"{{base_url}}"
							],
							"path": [
								"subordinado",
								"{{id}}"
							]
						}
					},
					"response": []
				},
				{
					"name": "Buscar Gerente do Subordinado",
					"request": {
						"method": "GET",
						"header": [],
						"url": {
							"raw": "{{base_url}}/{{subordinadoId}}/subordinado/gerente",
							"host": [
								"{{base_url}}"
							],
							"path": [
								"{{subordinadoId}}",
								"subordinado",
								"gerente"
							]
						}
					},
					"response": []
				},
				{
					"name": "Buscar Presidente do Subordinado",
					"request": {
						"method": "GET",
						"header": [],
						"url": {
							"raw": "{{base_url}}/{{subordinadoId}}/subordinado/presidente",
							"host": [
								"{{base_url}}"
							],
							"path": [
								"{{subordinadoId}}",
								"subordinado",
								"presidente"
							]
						}
					},
					"response": []
				}
			]
		}
	],
	"event": [
		{
			"listen": "prerequest",
			"script": {
				"type": "text/javascript",
				"exec": [
					""
				]
			}
		},
		{
			"listen": "test",
			"script": {
				"type": "text/javascript",
				"exec": [
					""
				]
			}
		}
	],
	"variable": [
		{
			"key": "id",
			"value": "1",
			"type": "string"
		},
		{
			"key": "ano",
			"value": "2023",
			"type": "string"
		},
		{
			"key": "gerenteId",
			"value": "2",
			"type": "string"
		},
		{
			"key": "subordinadoId",
			"value": "3",
			"type": "string"
		},
		{
			"key": "presidenteId",
			"value": "4",
			"type": "string"
		},
		{
			"key": "base_url",
			"value": "http://localhost:8080/api/v1"
		}
	]
}